{
  "result": [
    {
      "INT": 8
    }
  ],
  "total": 2,
  "next": 1,
  "time": {
    "start": 1587666756.409639,
    "finish": 1587666756.531686,
    "duration": 0.12204718589782715,
    "processing": 0.09800004959106445,
    "date_start": "2020-04-23T21:32:36+03:00",
    "date_finish": "2020-04-23T21:32:36+03:00"
  }
}